<svg xmlns="http://www.w3.org/2000/svg" width="695.268" height="634.406" viewBox="0 0 695.268 634.406">
  <g id="Authentication-rafiki" transform="translate(-39.6 -55.04)">
    <g id="freepik--background-complete--inject-40" transform="translate(39.6 55.04)">
      <path id="Path_1177" data-name="Path 1177" d="M365.029,521.664H48.947a9.363,9.363,0,0,1-9.347-9.347V68a9.363,9.363,0,0,1,9.347-9.265H365.029a9.347,9.347,0,0,1,9.331,9.347h0v444.24A9.347,9.347,0,0,1,365.029,521.664ZM48.947,59.057A8.954,8.954,0,0,0,40.009,68V512.317a8.954,8.954,0,0,0,8.938,8.938H365.029a8.938,8.938,0,0,0,8.921-8.938V68a8.938,8.938,0,0,0-8.921-8.938Z" transform="translate(-39.6 -52.69)" fill="#e6e6e6"/>
      <path id="Path_1178" data-name="Path 1178" d="M581.329,521.664h-316.1a9.347,9.347,0,0,1-9.331-9.347V68a9.347,9.347,0,0,1,9.331-9.265h316.1A9.347,9.347,0,0,1,590.66,68V512.317A9.347,9.347,0,0,1,581.329,521.664ZM265.231,59.057A8.938,8.938,0,0,0,256.309,68V512.317a8.938,8.938,0,0,0,8.922,8.938h316.1a8.971,8.971,0,0,0,8.954-8.938V68a8.971,8.971,0,0,0-8.954-8.938Z" transform="translate(98.176 -52.69)" fill="#e6e6e6"/>
      <path id="Path_1179" data-name="Path 1179" d="M304.034,213,301.791,405.4c-7.923,64.022-121.414,114.849-121.414,114.849S66.87,469.475,58.9,405.4L56.59,213l121.3-39.926Z" transform="translate(-28.778 20.141)" fill="#f5f5f5"/>
      <path id="Path_1180" data-name="Path 1180" d="M282.051,218.448,280.1,391.214c-6.908,55.837-105.9,100.166-105.9,100.166S75.221,447.051,68.329,391.214L66.25,218.448l105.8-34.818Z" transform="translate(-22.625 26.867)" fill="#e0e0e0"/>
      <path id="Path_1181" data-name="Path 1181" d="M272.569,224.261l-1.833,158.606c-6.548,52.383-99.282,93.9-99.282,93.9s-92.8-41.563-99.266-93.9L70.24,224.261l99.184-32.641Z" transform="translate(-20.083 31.957)" fill="none" stroke="#fff" stroke-linecap="round" stroke-linejoin="round" stroke-width="3" stroke-dasharray="0 33"/>
      <rect id="Rectangle_796" data-name="Rectangle 796" width="218.338" height="383.115" transform="translate(437.626 168.198)" fill="#f5f5f5"/>
      <rect id="Rectangle_797" data-name="Rectangle 797" width="186.369" height="368.055" transform="translate(453.767 183.258)" fill="#e0e0e0"/>
      <path id="Path_1182" data-name="Path 1182" d="M320.956,394.74a2.342,2.342,0,0,1-.949-.2,2.274,2.274,0,0,1-.786-.524,2.177,2.177,0,0,1-.54-.8,2.553,2.553,0,0,1-.18-.933,2.455,2.455,0,0,1,2.93-2.406l.458.131.426.229a3.449,3.449,0,0,1,.376.311,1.635,1.635,0,0,1,.295.377,1.768,1.768,0,0,1,.229.426,2.145,2.145,0,0,1,.147.458,2.22,2.22,0,0,1,0,.475,2.275,2.275,0,0,1-.2.933,2.34,2.34,0,0,1-.524.8,2.488,2.488,0,0,1-1.686.72Z" transform="translate(138.05 158.211)" fill="#fff"/>
      <path id="Path_1183" data-name="Path 1183" d="M318.48,449.3a2.456,2.456,0,0,1,2.488-2.439h0a2.455,2.455,0,0,1,2.455,2.455h0a2.455,2.455,0,0,1-2.455,2.455h0a2.455,2.455,0,0,1-2.488-2.472Zm0-60.289a2.455,2.455,0,0,1,2.455-2.455h0a2.455,2.455,0,0,1,2.455,2.455h0a2.455,2.455,0,0,1-2.455,2.455h0a2.456,2.456,0,0,1-2.455-2.455Zm0-60.306a2.455,2.455,0,0,1,2.455-2.455h0a2.455,2.455,0,0,1,2.455,2.455h0a2.455,2.455,0,0,1-2.455,2.455h0a2.455,2.455,0,0,1-2.455-2.455Zm0-60.306a2.455,2.455,0,0,1,2.455-2.455h0a2.455,2.455,0,0,1,2.455,2.455h0a2.455,2.455,0,0,1-2.455,2.455h0a2.456,2.456,0,0,1-2.456-2.423Zm0-60.289a2.455,2.455,0,0,1,2.455-2.455h0a2.455,2.455,0,0,1,2.455,2.455h0a2.455,2.455,0,0,1-2.455,2.455h0a2.455,2.455,0,0,1-2.455-2.455Z" transform="translate(138.037 40.893)" fill="#fff"/>
      <path id="Path_1184" data-name="Path 1184" d="M320.941,173.721a2.423,2.423,0,0,1-1.735-.72,1.732,1.732,0,0,1-.311-.377,3.271,3.271,0,0,1-.229-.409,1.638,1.638,0,0,1-.131-.475,2.22,2.22,0,0,1,0-.475,2.488,2.488,0,0,1,.72-1.735,2.247,2.247,0,0,1,.36-.311,2.065,2.065,0,0,1,.426-.213,2.483,2.483,0,0,1,.458-.147,2.406,2.406,0,0,1,.966,0,2.489,2.489,0,0,1,.458.147,2.068,2.068,0,0,1,.426.213,3.47,3.47,0,0,1,.376.311,2.488,2.488,0,0,1,.72,1.735,2.224,2.224,0,0,1,0,.475,2.63,2.63,0,0,1-.147.475,2.006,2.006,0,0,1-.229.409,1.637,1.637,0,0,1-.295.377A2.488,2.488,0,0,1,320.941,173.721Z" transform="translate(138.064 17.428)" fill="#fff"/>
      <path id="Path_1185" data-name="Path 1185" d="M412.62,171.265a2.455,2.455,0,0,1,2.455-2.455h0a2.455,2.455,0,0,1,2.455,2.455h0a2.455,2.455,0,0,1-2.455,2.455h0A2.455,2.455,0,0,1,412.62,171.265Zm-58.44,0a2.455,2.455,0,0,1,2.455-2.455h0a2.455,2.455,0,0,1,2.455,2.455h0a2.455,2.455,0,0,1-2.455,2.455h0A2.455,2.455,0,0,1,354.18,171.265Z" transform="translate(160.777 17.428)" fill="#fff"/>
      <path id="Path_1186" data-name="Path 1186" d="M428.035,173.7a2.338,2.338,0,0,1-.475,0l-.458-.131-.426-.229a3.45,3.45,0,0,1-.376-.311,2.456,2.456,0,0,1-.72-1.735,2.488,2.488,0,0,1,.72-1.735,2.129,2.129,0,0,1,.377-.295,1.538,1.538,0,0,1,.426-.229,2.143,2.143,0,0,1,.458-.147,2.406,2.406,0,0,1,.966,0l.458.147a1.455,1.455,0,0,1,.409.229,1.638,1.638,0,0,1,.377.295,2.488,2.488,0,0,1,.72,1.735,2.456,2.456,0,0,1-.72,1.735,2.374,2.374,0,0,1-.377.311,3.269,3.269,0,0,1-.409.229l-.458.131a2.5,2.5,0,0,1-.491,0Z" transform="translate(206.256 17.447)" fill="#fff"/>
      <path id="Path_1187" data-name="Path 1187" d="M425.58,449.3a2.456,2.456,0,0,1,2.456-2.455h0a2.455,2.455,0,0,1,2.456,2.455h0a2.455,2.455,0,0,1-2.455,2.455h0a2.455,2.455,0,0,1-2.455-2.455Zm0-60.289a2.456,2.456,0,0,1,2.456-2.455h0a2.455,2.455,0,0,1,2.456,2.455h0a2.455,2.455,0,0,1-2.455,2.455h0a2.455,2.455,0,0,1-2.455-2.455Zm0-60.306a2.456,2.456,0,0,1,2.456-2.455h0a2.455,2.455,0,0,1,2.456,2.455h0a2.455,2.455,0,0,1-2.455,2.455h0a2.455,2.455,0,0,1-2.455-2.455Zm0-60.306a2.456,2.456,0,0,1,2.456-2.455h0a2.455,2.455,0,0,1,2.456,2.455h0a2.455,2.455,0,0,1-2.455,2.455h0a2.455,2.455,0,0,1-2.455-2.423Zm0-60.289a2.456,2.456,0,0,1,2.456-2.455h0a2.455,2.455,0,0,1,2.456,2.455h0a2.455,2.455,0,0,1-2.455,2.455h0a2.455,2.455,0,0,1-2.455-2.455Z" transform="translate(206.256 40.893)" fill="#fff"/>
      <path id="Path_1188" data-name="Path 1188" d="M428.035,394.741a2.455,2.455,0,0,1-1.735-4.191,3.45,3.45,0,0,1,.376-.311l.426-.229.458-.131a2.406,2.406,0,0,1,.966,0l.458.131a3.268,3.268,0,0,1,.409.229,2.373,2.373,0,0,1,.376.311,2.455,2.455,0,0,1,.72,1.735,2.39,2.39,0,0,1-.72,1.735A2.455,2.455,0,0,1,428.035,394.741Z" transform="translate(206.257 158.21)" fill="#fff"/>
      <rect id="Rectangle_798" data-name="Rectangle 798" width="67.459" height="0.409" transform="translate(23.229 551.936)" fill="#e0e0e0"/>
      <rect id="Rectangle_799" data-name="Rectangle 799" width="67.656" height="0.409" transform="translate(160.537 548.662)" fill="#e0e0e0"/>
      <rect id="Rectangle_800" data-name="Rectangle 800" width="16.37" height="0.409" transform="translate(299.859 548.662)" fill="#e0e0e0"/>
      <rect id="Rectangle_801" data-name="Rectangle 801" width="75.71" height="0.409" transform="translate(76.905 562.641)" fill="#e0e0e0"/>
      <rect id="Rectangle_802" data-name="Rectangle 802" width="35.358" height="0.409" transform="translate(379.121 551.723)" fill="#e0e0e0"/>
      <rect id="Rectangle_803" data-name="Rectangle 803" width="45.72" height="0.409" transform="translate(429.049 551.723)" fill="#e0e0e0"/>
      <rect id="Rectangle_804" data-name="Rectangle 804" width="102.212" height="0.409" transform="translate(593.056 558.647)" fill="#e0e0e0"/>
      <path id="Path_1189" data-name="Path 1189" d="M262.755,105.937H187.34l4.125-47h75.4Z" transform="translate(54.505 -52.556)" fill="#ebebeb"/>
      <path id="Path_1190" data-name="Path 1190" d="M264.163,55.04,262.1,79.578l-2.063,29.5H187.52l4.125-54.036Z" transform="translate(54.62 -55.04)" fill="#fafafa"/>
      <path id="Path_1191" data-name="Path 1191" d="M259.455,60.316l4.109,47h-75.4l-4.125-47h6.417l2.226-3.536H213l2.914,3.536Z" transform="translate(52.403 -53.932)" fill="#e0e0e0"/>
      <rect id="Rectangle_805" data-name="Rectangle 805" width="80.244" height="80.244" transform="translate(353.896 63.874)" fill="#ebebeb"/>
      <rect id="Rectangle_806" data-name="Rectangle 806" width="2.046" height="80.244" transform="translate(434.14 63.874)" fill="#e0e0e0"/>
      <rect id="Rectangle_807" data-name="Rectangle 807" width="65.413" height="65.413" transform="translate(361.295 71.306)" fill="#f5f5f5"/>
      <rect id="Rectangle_808" data-name="Rectangle 808" width="0.606" height="65.413" transform="translate(361.311 71.306)" fill="#e0e0e0"/>
      <ellipse id="Ellipse_65" data-name="Ellipse 65" cx="12.752" cy="16.239" rx="12.752" ry="16.239" transform="translate(381.871 80.981)" fill="#e0e0e0"/>
      <rect id="Rectangle_809" data-name="Rectangle 809" width="13.439" height="13.439" transform="translate(401.4 121.676) rotate(180)" fill="#e0e0e0"/>
      <path id="Path_1192" data-name="Path 1192" d="M.066,0h49.24V4.584a15.78,15.78,0,0,1-15.78,15.78H15.78A15.78,15.78,0,0,1,0,4.583V0Z" transform="translate(418.916 136.719) rotate(180)" fill="#e0e0e0"/>
      <path id="Path_1193" data-name="Path 1193" d="M264.64,122.608c0,2.668,4.911,4.911,4.911,4.911s4.911-2.177,4.911-4.911c0-1.277-1.768-2-2.93-1.637a3.569,3.569,0,0,0-2.046,1.833,6.335,6.335,0,0,0-2.406-1.964,1.833,1.833,0,0,0-2.439,1.768Z" transform="translate(103.743 -13.193)" fill="#e0e0e0"/>
      <path id="Path_1194" data-name="Path 1194" d="M291.26,115.555c0,3.519,6.368,6.368,6.368,6.368S304,119.074,304,115.555c0-1.637-2.357-2.6-3.847-2.177a4.648,4.648,0,0,0-2.521,2.423,8.61,8.61,0,0,0-3.159-2.586,2.406,2.406,0,0,0-3.208,2.341Z" transform="translate(120.698 -18.073)" fill="#e0e0e0"/>
      <path id="Path_1195" data-name="Path 1195" d="M205.765,364.982c.753,4.731,4.174,8.807,4.436,13.587.213,3.749-1.539,7.268-2.406,10.919s-.442,8.185,2.75,10.116a7.334,7.334,0,0,0,7.4-.442,16.8,16.8,0,0,0,5.156-5.713,53.136,53.136,0,0,0,7.939-26.977c0-4.01-.409-8.267-2.766-11.459C220.972,344.814,203.9,353.2,205.765,364.982Z" transform="translate(66.151 133.114)" fill="#f5f5f5"/>
      <path id="Path_1196" data-name="Path 1196" d="M202.506,355.047a5.238,5.238,0,0,0,2.636,1.555,3.8,3.8,0,0,0,3.618-.7,4.273,4.273,0,0,0,.818-3.454,8.185,8.185,0,0,0-1.49-4.191,4.551,4.551,0,0,0-3.863-1.882,3.274,3.274,0,0,0-2.979,2.848A10,10,0,0,0,202.506,355.047Z" transform="translate(63.337 130.526)" fill="#f5f5f5"/>
      <path id="Path_1197" data-name="Path 1197" d="M212.471,346.219a3.143,3.143,0,0,0-3.176-1.391,3.061,3.061,0,0,0-2.357,2.521,9.069,9.069,0,0,0,0,1.2,9.526,9.526,0,0,0,.213,1.915,3.716,3.716,0,0,0,.835,1.637,3.913,3.913,0,0,0,2.046,1.048,3.045,3.045,0,0,0,2.734-.688,3.847,3.847,0,0,0,.851-2.865A6.089,6.089,0,0,0,212.471,346.219Z" transform="translate(66.976 129.516)" fill="#f5f5f5"/>
      <path id="Path_1198" data-name="Path 1198" d="M216.889,345.886a2.341,2.341,0,0,0-2.865-1.08,3.405,3.405,0,0,0-2.03,2.472c0,.36-.1.72-.115,1.08a7,7,0,0,0,.2,1.768,2.7,2.7,0,0,0,.851,1.473,3.012,3.012,0,0,0,1.637.688,2.717,2.717,0,0,0,2.177-.7,3.945,3.945,0,0,0,.982-2.619,4.911,4.911,0,0,0-.835-3.077Z" transform="translate(70.136 129.439)" fill="#f5f5f5"/>
      <path id="Path_1199" data-name="Path 1199" d="M220.8,346.784c-.8-1.195-1.637-1.277-2.554-.769a4.3,4.3,0,0,0-1.637,2.439,5.953,5.953,0,0,0-.2.966,5.077,5.077,0,0,0,0,1.637,2.079,2.079,0,0,0,.851,1.293,2.209,2.209,0,0,0,1.359.327,2.636,2.636,0,0,0,1.637-.769,4.206,4.206,0,0,0,1.1-2.341A3.945,3.945,0,0,0,220.8,346.784Z" transform="translate(72.983 130.113)" fill="#f5f5f5"/>
      <path id="Path_1200" data-name="Path 1200" d="M219.906,351.648a2.62,2.62,0,0,0,0,1.179,1.228,1.228,0,0,0,.7.917,1.735,1.735,0,0,0,1.8-.688,4.207,4.207,0,0,0,1.031-1.768,2.57,2.57,0,0,0-.246-2C221.74,346.918,220.1,350.47,219.906,351.648Z" transform="translate(75.206 131.878)" fill="#f5f5f5"/>
      <path id="Path_1201" data-name="Path 1201" d="M230.047,433.484c1.1-3.863,1.735-8.1.278-11.852-4.5-11.672-23.1-7.956-24.325,3.929Z" transform="translate(66.391 173.945)" fill="#f5f5f5"/>
      <path id="Path_1202" data-name="Path 1202" d="M204.554,416.045a5.222,5.222,0,0,0,2.161,2.177,3.782,3.782,0,0,0,3.667.246,4.306,4.306,0,0,0,1.637-3.127,8.185,8.185,0,0,0-.36-4.42,4.6,4.6,0,0,0-3.274-2.832,3.274,3.274,0,0,0-3.6,1.981,10.1,10.1,0,0,0-.229,5.975Z" transform="translate(65.25 169.808)" fill="#f5f5f5"/>
      <path id="Path_1203" data-name="Path 1203" d="M216.455,410.081a3.176,3.176,0,0,0-2.717-2.161,3.094,3.094,0,0,0-2.93,1.833,9.481,9.481,0,0,0-.36,1.146,9.016,9.016,0,0,0-.295,1.9,3.6,3.6,0,0,0,.376,1.85,3.963,3.963,0,0,0,1.637,1.522,2.979,2.979,0,0,0,2.8,0,3.863,3.863,0,0,0,1.637-2.537,6.286,6.286,0,0,0-.147-3.552Z" transform="translate(69.032 169.732)" fill="#f5f5f5"/>
      <path id="Path_1204" data-name="Path 1204" d="M220.75,410.887a2.357,2.357,0,0,0-2.455-1.784,3.454,3.454,0,0,0-2.6,1.882,10.524,10.524,0,0,0-.393,1,6.664,6.664,0,0,0-.327,1.719,2.766,2.766,0,0,0,.426,1.637,2.963,2.963,0,0,0,1.473,1.1,2.685,2.685,0,0,0,2.292-.131,3.929,3.929,0,0,0,1.637-2.259,4.91,4.91,0,0,0-.049-3.159Z" transform="translate(72.103 170.482)" fill="#f5f5f5"/>
      <path id="Path_1205" data-name="Path 1205" d="M224.312,412.756c-.458-1.375-1.326-1.637-2.259-1.408a4.354,4.354,0,0,0-2.259,1.915,8.884,8.884,0,0,0-.442.884,5.025,5.025,0,0,0-.36,1.539,2.1,2.1,0,0,0,.475,1.457,2.176,2.176,0,0,0,1.228.671,2.537,2.537,0,0,0,1.784-.311,4.224,4.224,0,0,0,1.637-1.981A3.929,3.929,0,0,0,224.312,412.756Z" transform="translate(74.664 171.869)" fill="#f5f5f5"/>
      <path id="Path_1206" data-name="Path 1206" d="M222.135,417.276a2.586,2.586,0,0,0-.344,1.13,1.26,1.26,0,0,0,.442,1.064,1.735,1.735,0,0,0,1.915-.2,4.387,4.387,0,0,0,1.457-1.44,2.6,2.6,0,0,0,.278-2C225.033,413.167,222.659,416.212,222.135,417.276Z" transform="translate(76.447 174.094)" fill="#f5f5f5"/>
      <path id="Path_1207" data-name="Path 1207" d="M191.053,387.836c.606,4.764-1.637,9.625-.491,14.291.835,3.65,3.5,6.548,5.336,9.822s2.7,7.726.147,10.477a7.3,7.3,0,0,1-7.219,1.637,17.172,17.172,0,0,1-6.548-4.076,53.119,53.119,0,0,1-15.093-23.72c-1.179-3.847-1.9-8.054-.524-11.835C170.967,372.662,189.6,376,191.053,387.836Z" transform="translate(40.856 150.103)" fill="#f5f5f5"/>
      <path id="Path_1208" data-name="Path 1208" d="M185.676,378.389a5.156,5.156,0,0,1-2.1,2.21,3.748,3.748,0,0,1-3.667.327,4.24,4.24,0,0,1-1.752-3.094,8.332,8.332,0,0,1,.262-4.436,4.6,4.6,0,0,1,3.274-2.881,3.274,3.274,0,0,1,3.65,1.9C185.807,373.937,186.379,376.9,185.676,378.389Z" transform="translate(48.541 145.865)" fill="#f5f5f5"/>
      <path id="Path_1209" data-name="Path 1209" d="M173.193,372.678a3.176,3.176,0,0,1,2.668-2.226,3.094,3.094,0,0,1,2.963,1.784,8.183,8.183,0,0,1,.393,1.13,8.876,8.876,0,0,1,.327,1.882,3.5,3.5,0,0,1-.344,1.866,3.831,3.831,0,0,1-1.637,1.637,2.979,2.979,0,0,1-2.8.115,3.863,3.863,0,0,1-1.637-2.521,6.09,6.09,0,0,1,.066-3.667Z" transform="translate(45.293 145.864)" fill="#f5f5f5"/>
      <path id="Path_1210" data-name="Path 1210" d="M168.633,373.566a2.341,2.341,0,0,1,2.455-1.833,3.454,3.454,0,0,1,2.635,1.817,8.548,8.548,0,0,1,.409,1,6.71,6.71,0,0,1,.376,1.719,2.832,2.832,0,0,1-.409,1.637,2.964,2.964,0,0,1-1.441,1.129,2.668,2.668,0,0,1-2.292-.082,3.879,3.879,0,0,1-1.637-2.226A4.911,4.911,0,0,1,168.633,373.566Z" transform="translate(42.453 146.678)" fill="#f5f5f5"/>
      <path id="Path_1211" data-name="Path 1211" d="M164.911,375.507a1.791,1.791,0,0,1,2.243-1.457,4.355,4.355,0,0,1,2.292,1.883,7.522,7.522,0,0,1,.458.868,4.453,4.453,0,0,1,.393,1.522,2.03,2.03,0,0,1-.442,1.473,2.161,2.161,0,0,1-1.211.688,2.571,2.571,0,0,1-1.8-.262,4.305,4.305,0,0,1-1.719-1.948,3.945,3.945,0,0,1-.213-2.767Z" transform="translate(40.119 148.126)" fill="#f5f5f5"/>
      <path id="Path_1212" data-name="Path 1212" d="M166.687,379.94a2.881,2.881,0,0,1,.376,1.129,1.293,1.293,0,0,1-.426,1.08,1.784,1.784,0,0,1-1.932-.164,4.19,4.19,0,0,1-1.473-1.408,2.537,2.537,0,0,1-.311-2C163.691,375.946,166.13,378.942,166.687,379.94Z" transform="translate(38.9 150.371)" fill="#f5f5f5"/>
      <path id="Path_1213" data-name="Path 1213" d="M165.257,158.487a19.234,19.234,0,1,1,16.37-21.723A19.234,19.234,0,0,1,165.257,158.487Zm-3.9-27.992a9.02,9.02,0,1,0,10.166,7.694,9.02,9.02,0,0,0-10.166-7.694Z" transform="translate(26.481 -13.533)" fill="#e0e0e0"/>
      <rect id="Rectangle_810" data-name="Rectangle 810" width="7.301" height="46.965" transform="matrix(0.99, -0.138, 0.138, 0.99, 177.297, 69.538)" fill="#e0e0e0"/>
      <rect id="Rectangle_811" data-name="Rectangle 811" width="13.701" height="7.301" transform="translate(177.079 63.973) rotate(-8.049)" fill="#e0e0e0"/>
      <rect id="Rectangle_812" data-name="Rectangle 812" width="12.883" height="7.301" transform="translate(178.999 73.666) rotate(-7.94)" fill="#e0e0e0"/>
      <rect id="Rectangle_813" data-name="Rectangle 813" width="11.246" height="7.301" transform="translate(182.48 86.548) rotate(-7.94)" fill="#e0e0e0"/>
    </g>
    <g id="freepik--Shadows--inject-40" transform="translate(66.626 652.385)">
      <g id="freepik--Shadow--inject-214--inject-40">
        <ellipse id="freepik--path--inject-214--inject-40" cx="317.391" cy="18.53" rx="317.391" ry="18.53" fill="#f5f5f5"/>
      </g>
    </g>
    <g id="freepik--Fingerprint--inject-40" transform="translate(126.559 274.998)">
      <ellipse id="Ellipse_66" data-name="Ellipse 66" cx="39.516" cy="43.118" rx="39.516" ry="43.118" transform="translate(0 57.09) rotate(-46.25)" fill="#407bff"/>
      <g id="Group_119" data-name="Group 119" transform="translate(0 0)" opacity="0.8">
        <ellipse id="Ellipse_67" data-name="Ellipse 67" cx="39.516" cy="43.118" rx="39.516" ry="43.118" transform="translate(0 57.09) rotate(-46.25)" fill="#fff"/>
      </g>
      <path id="Path_1214" data-name="Path 1214" d="M117.327,212.682a1.637,1.637,0,0,1-.982-2.947,31.446,31.446,0,0,1,18.94-5.893h0a1.637,1.637,0,1,1,0,3.274h0a28.123,28.123,0,0,0-16.975,5.238A1.637,1.637,0,0,1,117.327,212.682Z" transform="translate(-78.092 -180.219)" fill="#407bff"/>
      <path id="Path_1215" data-name="Path 1215" d="M129.59,265.081a1.636,1.636,0,0,1-.769-.2A38.141,38.141,0,0,1,109.34,238.4a33.345,33.345,0,0,1,6.548-27.828,1.639,1.639,0,0,1,2.521,2.1,30.1,30.1,0,0,0-5.877,25.177,34.982,34.982,0,0,0,17.81,24.227,1.637,1.637,0,0,1-.769,3.078Z" transform="translate(-82.612 -176.307)" fill="#407bff"/>
      <path id="Path_1216" data-name="Path 1216" d="M136.07,261.373a35.36,35.36,0,0,1-10.788-1.735,1.644,1.644,0,0,1,1.015-3.127c10.067,3.274,20.118,1.441,27.566-4.911a29.334,29.334,0,0,0,9.462-27.174,1.658,1.658,0,0,1,3.274-.524,32.461,32.461,0,0,1-10.558,30.169A30.186,30.186,0,0,1,136.07,261.373Z" transform="translate(-72.706 -168.327)" fill="#407bff"/>
      <path id="Path_1217" data-name="Path 1217" d="M156.616,231a1.637,1.637,0,0,1-1.555-1.146,34.884,34.884,0,0,0-18.956-21.1,1.642,1.642,0,0,1,1.31-3.012,38.207,38.207,0,0,1,20.757,23.114,1.637,1.637,0,0,1-1.048,2.063A1.932,1.932,0,0,1,156.616,231Z" transform="translate(-65.718 -179.092)" fill="#407bff"/>
      <path id="Path_1218" data-name="Path 1218" d="M136.2,208.012a1.39,1.39,0,0,1-.377,0,33.281,33.281,0,0,0-7.514-.868,1.637,1.637,0,0,1,0-3.274h0a36.1,36.1,0,0,1,8.185.966,1.648,1.648,0,1,1-.376,3.274Z" transform="translate(-71.098 -180.198)" fill="#407bff"/>
      <path id="Path_1219" data-name="Path 1219" d="M116.131,244.234a1.637,1.637,0,0,1-1.539-1.064,25.979,25.979,0,0,1,2.881-24.194A24.555,24.555,0,0,1,137.968,208.4h0a1.637,1.637,0,1,1,0,3.274h0a21.428,21.428,0,0,0-17.827,9.167,22.8,22.8,0,0,0-2.472,21.281,1.637,1.637,0,0,1-.966,2.1A1.753,1.753,0,0,1,116.131,244.234Z" transform="translate(-79.908 -177.313)" fill="#407bff"/>
      <path id="Path_1220" data-name="Path 1220" d="M140.343,248.049h0a30.5,30.5,0,0,1-24.555-13.865,1.637,1.637,0,0,1,2.734-1.784,27.206,27.206,0,0,0,21.821,12.375,1.637,1.637,0,0,1,0,3.274Z" transform="translate(-78.158 -162.434)" fill="#407bff"/>
      <path id="Path_1221" data-name="Path 1221" d="M139.093,262.223a1.637,1.637,0,0,1-.442-3.225c13.276-3.274,16.713-14.913,15.617-23.851-1.424-11.655-10.624-23.458-25.471-23.474a1.637,1.637,0,1,1,0-3.274h0c16.746,0,27.124,13.259,28.729,26.355,1.637,13.5-5.451,24.276-18.088,27.419A1.64,1.64,0,0,1,139.093,262.223Z" transform="translate(-70.786 -177.313)" fill="#407bff"/>
      <path id="Path_1222" data-name="Path 1222" d="M124.734,217.774a1.642,1.642,0,0,1-.688-3.127,19.169,19.169,0,0,1,7.972-1.637,1.637,1.637,0,1,1,0,3.274,15.813,15.813,0,0,0-6.548,1.424A1.637,1.637,0,0,1,124.734,217.774Z" transform="translate(-73.369 -174.377)" fill="#407bff"/>
      <path id="Path_1223" data-name="Path 1223" d="M138.888,250.326a21.69,21.69,0,0,1-19.5-12.932C116,230.011,117,222.3,122.06,216.735a1.634,1.634,0,0,1,2.406,2.21,15.191,15.191,0,0,0-2.1,17.074,18.416,18.416,0,0,0,17.041,11.033,14.143,14.143,0,0,0,12.85-8.463,16.91,16.91,0,0,0-3.012-17.81,1.637,1.637,0,1,1,2.488-2.128,20.167,20.167,0,0,1,3.519,21.281,17.385,17.385,0,0,1-15.748,10.411Z" transform="translate(-76.997 -172.339)" fill="#407bff"/>
      <path id="Path_1224" data-name="Path 1224" d="M139.32,219.246a1.539,1.539,0,0,1-.868-.262,17.286,17.286,0,0,0-9.265-2.75,1.637,1.637,0,0,1,0-3.274h0a20.429,20.429,0,0,1,11.017,3.274,1.637,1.637,0,0,1-.884,3.012Z" transform="translate(-70.538 -174.408)" fill="#407bff"/>
      <path id="Path_1225" data-name="Path 1225" d="M135.089,242.127a13.1,13.1,0,0,1-10-4.747,12.457,12.457,0,0,1-1.964-13.341,11.049,11.049,0,0,1,10.264-6.548h0a1.637,1.637,0,0,1,0,3.274,7.841,7.841,0,0,0-7.285,4.6,9.183,9.183,0,0,0,1.49,9.822,9.674,9.674,0,0,0,9.822,3.274,7.743,7.743,0,0,0,5.877-5.959,1.642,1.642,0,0,1,3.209.7,10.984,10.984,0,0,1-8.283,8.43,13.292,13.292,0,0,1-3.127.491Z" transform="translate(-74.066 -171.523)" fill="#407bff"/>
      <path id="Path_1226" data-name="Path 1226" d="M140.833,229.142A1.637,1.637,0,0,1,139.2,228a10.346,10.346,0,0,0-9.609-7.2,1.637,1.637,0,0,1,0-3.274h0a13.7,13.7,0,0,1,12.736,9.494,1.606,1.606,0,0,1-1.49,2.128Z" transform="translate(-70.283 -171.504)" fill="#407bff"/>
      <path id="Path_1227" data-name="Path 1227" d="M132.513,232.565a1.637,1.637,0,1,1,0-3.274,1.637,1.637,0,0,0,1.637-1.735,2.406,2.406,0,0,0-2.374-2.472,1.817,1.817,0,0,0-1.277.573,1.964,1.964,0,0,0-.458,1.441,1.64,1.64,0,1,1-3.274.2,5.058,5.058,0,0,1,4.911-5.484,5.664,5.664,0,0,1,5.648,5.746,4.911,4.911,0,0,1-4.911,5.009Z" transform="translate(-71.048 -168.771)" fill="#407bff"/>
      <path id="Path_1228" data-name="Path 1228" d="M174.141,241.07c2,22.8-14.88,41.284-37.65,41.284h-1.768c21.706-1.113,37.47-19.153,35.539-41.235A46.048,46.048,0,0,0,127.52,199.9h1.752C152.107,199.8,172.209,218.283,174.141,241.07Z" transform="translate(-70.557 -182.727)" fill="#407bff"/>
      <g id="Group_120" data-name="Group 120" transform="translate(56.963 17.173)" opacity="0.4">
        <path id="Path_1229" data-name="Path 1229" d="M174.141,241.07c2,22.8-14.88,41.284-37.65,41.284h-1.768c21.706-1.113,37.47-19.153,35.539-41.235A46.048,46.048,0,0,0,127.52,199.9h1.752C152.107,199.8,172.209,218.283,174.141,241.07Z" transform="translate(-127.52 -199.9)" fill="#fff"/>
      </g>
    </g>
    <g id="freepik--verification-code--inject-40" transform="translate(263.502 112.17)">
      <path id="Path_1230" data-name="Path 1230" d="M176.446,107.4a14.166,14.166,0,0,0,.2,1.457,14.929,14.929,0,0,0,4.616,8.185,14.733,14.733,0,0,0,9.936,3.978H329.5A12.179,12.179,0,0,0,341.927,108.9a14.526,14.526,0,0,0,0-1.457,15.142,15.142,0,0,0-14.733-13.554H188.854a12.228,12.228,0,0,0-12.408,13.5Z" transform="translate(-176.379 -87.425)" fill="#407bff"/>
      <path id="Path_1231" data-name="Path 1231" d="M176.446,107.4a14.166,14.166,0,0,0,.2,1.457,14.929,14.929,0,0,0,4.616,8.185,14.733,14.733,0,0,0,9.936,3.978H329.5A12.179,12.179,0,0,0,341.927,108.9a14.526,14.526,0,0,0,0-1.457,15.142,15.142,0,0,0-14.733-13.554H188.854a12.228,12.228,0,0,0-12.408,13.5Z" transform="translate(-176.379 -87.425)" fill="#fff" opacity="0.8"/>
      <path id="Path_1232" data-name="Path 1232" d="M340.5,108.822a8.649,8.649,0,0,1-.1,1.31,15.142,15.142,0,0,0-14.733-13.1l-147.049.327a12.375,12.375,0,0,1,8.807-3.5H325.734a15.142,15.142,0,0,1,14.733,13.554Q340.517,108.117,340.5,108.822Z" transform="translate(-174.952 -87.444)" fill="#407bff"/>
      <path id="Path_1233" data-name="Path 1233" d="M340.5,108.822a8.649,8.649,0,0,1-.1,1.31,15.142,15.142,0,0,0-14.733-13.1l-147.049.327a12.375,12.375,0,0,1,8.807-3.5H325.734a15.142,15.142,0,0,1,14.733,13.554Q340.517,108.117,340.5,108.822Z" transform="translate(-174.952 -87.444)" fill="#fff" opacity="0.5"/>
      <path id="Path_1234" data-name="Path 1234" d="M266.981,97.892l.589,6.548,6.155-2.292,1.457,3.274-6.286,2.1,4.518,5.549-2.832,2.079-4.4-5.762-3.274,5.762-3.094-2.079,3.487-5.549-6.548-2.1.884-3.274,6.63,2.21-.589-6.548Z" transform="translate(-125.185 -84.927)" fill="#407bff"/>
      <path id="Path_1235" data-name="Path 1235" d="M243.837,97.873l.589,6.548,6.155-2.292,1.473,3.274-6.335,2.144,4.518,5.549-2.816,2.079-4.4-5.762-3.274,5.762-3.11-2.079,3.5-5.549-6.548-2.1.884-3.274,6.63,2.21-.573-6.548Z" transform="translate(-139.938 -84.908)" fill="#407bff"/>
      <path id="Path_1236" data-name="Path 1236" d="M220.7,97.873l.573,6.548,6.155-2.292L228.9,105.4l-6.3,2.1,4.518,5.549-2.734,2.128-4.4-5.762-3.274,5.762-3.094-2.079,3.487-5.549-6.548-2.1.9-3.274,6.548,2.21-.573-6.548Z" transform="translate(-154.613 -84.908)" fill="#407bff"/>
      <path id="Path_1237" data-name="Path 1237" d="M197.621,97.892l.573,6.548,6.171-2.292,1.457,3.274-6.3,2.1,4.534,5.549-2.832,2.079-4.4-5.762-3.274,5.762-3.094-2.079,3.487-5.549-6.548-2.1.884-3.274,6.548,2.21-.573-6.548Z" transform="translate(-169.365 -84.927)" fill="#407bff"/>
      <rect id="Rectangle_814" data-name="Rectangle 814" width="6.45" height="1.637" transform="translate(113.492)" fill="#407bff"/>
      <rect id="Rectangle_815" data-name="Rectangle 815" width="21.035" height="1.637" transform="translate(126.621)" fill="#407bff"/>
    </g>
    <g id="freepik--face-recognition--inject-40" transform="translate(548.046 164.176)">
      <path id="Path_1238" data-name="Path 1238" d="M428.1,130.762l-6.7,76.545a10.1,10.1,0,0,1-9.822,9.036H358.432a8.185,8.185,0,0,1-8.185-9.036l6.7-76.561a10.051,10.051,0,0,1,9.822-9.036h53.152a8.185,8.185,0,0,1,8.185,9.052Z" transform="translate(-350.203 -121.71)" fill="#407bff" opacity="0.8"/>
      <path id="Path_1239" data-name="Path 1239" d="M428.1,130.762l-6.7,76.545a10.1,10.1,0,0,1-9.822,9.036H358.432a8.185,8.185,0,0,1-8.185-9.036l6.7-76.561a10.051,10.051,0,0,1,9.822-9.036h53.152a8.185,8.185,0,0,1,8.185,9.052Z" transform="translate(-350.203 -121.71)" fill="#fff" opacity="0.8"/>
      <path id="Path_1240" data-name="Path 1240" d="M357.919,138.774h-.147a1.637,1.637,0,0,1-1.49-1.768L356.9,130a1.637,1.637,0,0,1,1.637-1.49h7.4a1.637,1.637,0,1,1,0,3.274h-5.893l-.491,5.5A1.637,1.637,0,0,1,357.919,138.774Z" transform="translate(-346.334 -117.379)" fill="#407bff"/>
      <path id="Path_1241" data-name="Path 1241" d="M396.914,138.774h-.147a1.637,1.637,0,0,1-1.49-1.768l.458-5.222h-5.6a1.637,1.637,0,1,1,0-3.274H397.5a1.637,1.637,0,0,1,1.637,1.784l-.622,6.99A1.637,1.637,0,0,1,396.914,138.774Z" transform="translate(-325.809 -117.379)" fill="#407bff"/>
      <path id="Path_1242" data-name="Path 1242" d="M362.512,171.049h-7.4a1.628,1.628,0,0,1-1.621-1.768l.606-7.006a1.643,1.643,0,1,1,3.274.278l-.458,5.222h5.6a1.637,1.637,0,1,1,0,3.274Z" transform="translate(-348.111 -96.829)" fill="#407bff"/>
      <path id="Path_1243" data-name="Path 1243" d="M394.32,171.046h-7.383a1.637,1.637,0,1,1,0-3.274h5.893l.475-5.5a1.635,1.635,0,1,1,3.258.278l-.606,7.006A1.637,1.637,0,0,1,394.32,171.046Z" transform="translate(-327.847 -96.826)" fill="#407bff"/>
      <ellipse id="Ellipse_68" data-name="Ellipse 68" cx="26.797" cy="21.542" rx="26.797" ry="21.542" transform="matrix(0.25, -0.968, 0.968, 0.25, 12.424, 63.017)" fill="#fff"/>
      <path id="Path_1244" data-name="Path 1244" d="M386.8,180.779H365.6l1.85-21.2h21.2Z" transform="translate(-340.395 -97.588)" fill="#fff"/>
      <path id="Path_1245" data-name="Path 1245" d="M421.406,177.006a10.1,10.1,0,0,1-9.822,9.036H358.432a8.185,8.185,0,0,1-8.185-9.036s24.424-7.727,27.436-7.727h18.874Z" transform="translate(-350.203 -91.409)" fill="#fff"/>
      <rect id="Rectangle_816" data-name="Rectangle 816" width="30.169" height="1.637" transform="translate(78.506 61.491) rotate(-85.29)" fill="#407bff"/>
      <rect id="Rectangle_817" data-name="Rectangle 817" width="5.926" height="1.637" transform="translate(82.219 23.571) rotate(-85.29)" fill="#407bff"/>
    </g>
    <g id="freepik--Verified--inject-40" transform="translate(521.287 293.966)">
      <rect id="Rectangle_818" data-name="Rectangle 818" width="6.45" height="1.637" transform="translate(45.972 70.509)" fill="#407bff"/>
      <rect id="Rectangle_819" data-name="Rectangle 819" width="21.035" height="1.637" transform="translate(59.101 70.509)" fill="#407bff"/>
      <path id="Path_1246" data-name="Path 1246" d="M446.58,243.563,442.5,290.217a8.479,8.479,0,0,1-8.283,7.612,6.875,6.875,0,0,1-6.957-7.612l4.043-46.653a24.685,24.685,0,0,0-24.947-27.337H389.728A30.464,30.464,0,0,0,360,243.563l-1.637,19.054H343.14l1.637-19.054C346.823,220.089,367.6,201,391.054,201h16.7a38.42,38.42,0,0,1,38.829,42.561Z" transform="translate(-327.943 -200.997)" fill="#407bff"/>
      <g id="Group_121" data-name="Group 121" transform="translate(15.197)" opacity="0.5">
        <path id="Path_1247" data-name="Path 1247" d="M446.58,243.563,442.5,290.217a8.479,8.479,0,0,1-8.283,7.612,6.875,6.875,0,0,1-6.957-7.612l4.043-46.653a24.685,24.685,0,0,0-24.947-27.337H389.728A30.464,30.464,0,0,0,360,243.563l-1.637,19.054H343.14l1.637-19.054C346.823,220.089,367.6,201,391.054,201h16.7a38.42,38.42,0,0,1,38.829,42.561Z" transform="translate(-343.14 -200.997)" fill="#fff"/>
      </g>
      <path id="Path_1248" data-name="Path 1248" d="M453.59,258.53l-7.939,90.917a11.573,11.573,0,0,1-11.328,10.395H343.406a9.38,9.38,0,0,1-9.494-10.395l7.956-90.917a11.573,11.573,0,0,1,5.664-8.823,11.131,11.131,0,0,1,5.664-1.637h90.9a9.822,9.822,0,0,1,5.255,1.49A9.429,9.429,0,0,1,453.59,258.53Z" transform="translate(-333.856 -171.013)" fill="#407bff"/>
      <path id="Path_1249" data-name="Path 1249" d="M349.25,295.388l23.621,36.357,77.9-77.9a.786.786,0,0,0-1.031-1.162l-74.236,58.194-14.029-22.607Z" transform="translate(-324.051 -168.158)" fill="#fff"/>
    </g>
    <g id="freepik--eye-scan--inject-40" transform="translate(93.367 158.725)">
      <path id="Path_1250" data-name="Path 1250" d="M151.322,202.178H92.1a11.213,11.213,0,0,1-10.951-10.067l-5.124-59.193A9.069,9.069,0,0,1,85.2,122.851h59.16a11.2,11.2,0,0,1,10.886,10.067l5.173,59.16a9.069,9.069,0,0,1-9.1,10.1Z" transform="translate(-70.203 -115.533)" fill="#407bff"/>
      <path id="Path_1251" data-name="Path 1251" d="M151.322,202.178H92.1a11.213,11.213,0,0,1-10.951-10.067l-5.124-59.193A9.069,9.069,0,0,1,85.2,122.851h59.16a11.2,11.2,0,0,1,10.886,10.067l5.173,59.16a9.069,9.069,0,0,1-9.1,10.1Z" transform="translate(-70.203 -115.533)" fill="#fff" opacity="0.8"/>
      <path id="Path_1252" data-name="Path 1252" d="M79.15,161.838s21.035-29.285,36.521-28.532,41.219,27.828,41.219,27.828S118.961,181.056,79.15,161.838Z" transform="translate(-68.175 -108.882)" fill="#fff"/>
      <path id="Path_1253" data-name="Path 1253" d="M80.076,162.612l-1.326-.949c.851-1.195,20.9-28.892,36.586-28.892h.638c15.649.753,40.695,26.977,41.759,28.09l-1.179,1.13c-.262-.262-25.668-26.863-40.662-27.583h-.557C100.44,134.44,80.272,162.366,80.076,162.612Z" transform="translate(-68.429 -109.214)" fill="#263238"/>
      <path id="Path_1254" data-name="Path 1254" d="M81.243,153.983c-3.176,0-7.3-1.179-8.758-5.664a.818.818,0,0,1,.524-1.031.8.8,0,0,1,1.031.524c1.883,5.795,8.921,4.4,9.216,4.338a.835.835,0,0,1,.966.638.819.819,0,0,1-.638.966A12.049,12.049,0,0,1,81.243,153.983Z" transform="translate(-72.445 -99.995)" fill="#263238"/>
      <path id="Path_1255" data-name="Path 1255" d="M88.593,147.758a.819.819,0,0,1-.507-.164c-.246-.2-6.057-4.682-7.53-9.249a.818.818,0,0,1,.524-1.031.835.835,0,0,1,1.031.524c1.326,4.076,6.908,8.414,6.973,8.447a.825.825,0,0,1-.491,1.473Z" transform="translate(-67.305 -106.343)" fill="#263238"/>
      <path id="Path_1256" data-name="Path 1256" d="M94.8,142.488h0a.851.851,0,0,1-.8-.835,85.217,85.217,0,0,0-3.552-10.477c-.409-1.08-.7-1.866-.769-2.063a.821.821,0,1,1,1.571-.475,20.159,20.159,0,0,0,.72,1.948c2.292,6.008,3.7,9.953,3.667,11.1a.8.8,0,0,1-.835.8Z" transform="translate(-61.495 -112.221)" fill="#263238"/>
      <path id="Path_1257" data-name="Path 1257" d="M102.226,139.537a.851.851,0,0,1-.818-.753l-1.146-13.1a.822.822,0,1,1,1.637-.147l1.146,13.194a.835.835,0,0,1-.737.884Z" transform="translate(-54.73 -114.295)" fill="#263238"/>
      <path id="Path_1258" data-name="Path 1258" d="M129.325,153.435a13.818,13.818,0,0,1-2.39-.2.819.819,0,0,1-.638-.966.786.786,0,0,1,.949-.638s4.011.769,6.466-.966a4.583,4.583,0,0,0,1.866-3.274.828.828,0,1,1,1.637.246,6.2,6.2,0,0,1-2.554,4.338A9.331,9.331,0,0,1,129.325,153.435Z" transform="translate(-38.155 -100.348)" fill="#263238"/>
      <path id="Path_1259" data-name="Path 1259" d="M119.49,147.229a.786.786,0,0,1-.606-.278.818.818,0,0,1,0-1.162s4.911-4.322,5.435-8.349a.835.835,0,0,1,.933-.687.819.819,0,0,1,.688.933c-.688,4.616-5.762,9.134-5.975,9.331a.753.753,0,0,1-.475.213Z" transform="translate(-43.02 -106.682)" fill="#263238"/>
      <path id="Path_1260" data-name="Path 1260" d="M111.032,142.958h-.147a.835.835,0,0,1-.671-.949c0-.1,1.8-10.624,2.128-12.785a.828.828,0,1,1,1.637.246c-.327,2.177-2.112,12.719-2.128,12.817A.819.819,0,0,1,111.032,142.958Z" transform="translate(-48.394 -111.922)" fill="#263238"/>
      <ellipse id="Ellipse_69" data-name="Ellipse 69" cx="17.745" cy="19.382" rx="17.745" ry="19.382" transform="translate(22.846 42.398) rotate(-46.25)" fill="#407bff"/>
      <path id="Path_1261" data-name="Path 1261" d="M117.377,151.848a10.559,10.559,0,0,0,0-1.244,8.774,8.774,0,0,0-8.578-7.874,7.1,7.1,0,0,0-7.186,7.874,5.369,5.369,0,0,0,.229,1.244H91.169a16.713,16.713,0,0,1,16.91-18.547,20.675,20.675,0,0,1,20.184,18.547Z" transform="translate(-60.583 -108.877)" opacity="0.3"/>
      <path id="Path_1262" data-name="Path 1262" d="M113.287,146.934a10.558,10.558,0,0,1,0,1.244,7.088,7.088,0,0,1-7.219,6.63,8.758,8.758,0,0,1-8.332-6.63,5.37,5.37,0,0,1-.229-1.244,7.1,7.1,0,0,1,7.186-7.874,8.774,8.774,0,0,1,8.594,7.874Z" transform="translate(-56.509 -105.208)" opacity="0.7"/>
      <path id="Path_1263" data-name="Path 1263" d="M114.748,141.647a5.795,5.795,0,0,1-5.86,6.417,7.153,7.153,0,0,1-6.973-6.417,5.778,5.778,0,0,1,5.86-6.417,7.137,7.137,0,0,1,6.973,6.417Z" transform="translate(-53.698 -107.648)" fill="#fff" opacity="0.7"/>
      <rect id="Rectangle_820" data-name="Rectangle 820" width="6.45" height="1.637" transform="translate(29.26)" fill="#407bff"/>
      <rect id="Rectangle_821" data-name="Rectangle 821" width="21.035" height="1.637" transform="translate(42.389)" fill="#407bff"/>
    </g>
    <g id="freepik--Character--inject-40" transform="translate(210.392 176.554)">
      <path id="Path_1264" data-name="Path 1264" d="M280.79,193.128l.557.671.753.868c.54.573,1.064,1.179,1.637,1.735,1.13,1.179,2.357,2.324,3.6,3.487a95.111,95.111,0,0,0,7.808,6.466c2.766,2.063,5.68,3.945,8.594,5.811,1.637.884,2.979,1.817,4.518,2.668l3.552,1.964a2.357,2.357,0,0,0,1.637.1c1.146-.344,7.727-6.859,9.822-9.282,4.649-5.32,11.688-12.326,15.486-18.285l4.24,5.844A96.072,96.072,0,0,1,332.4,215.865a45.832,45.832,0,0,1-8.348,9.347,23.475,23.475,0,0,1-6.417,3.847,15.568,15.568,0,0,1-9.3.7,14.568,14.568,0,0,1-2.341-.786l-1.473-.638-2.652-1.211c-1.784-.786-3.5-1.735-5.238-2.6a108.6,108.6,0,0,1-10.084-6.106,104.019,104.019,0,0,1-9.413-7.3c-1.555-1.359-2.946-2.734-4.371-4.223-.7-.737-1.424-1.506-2.112-2.308l-1.015-1.244c-.377-.458-.655-.8-1.162-1.506Z" transform="translate(-64.603 -91.016)" fill="#ffb573"/>
      <path id="Path_1265" data-name="Path 1265" d="M311,196.2l7.6-16.239,7.252,13s-4.764,8.185-9.936,8.185Z" transform="translate(-37.519 -96.985)" fill="#ffb573"/>
      <path id="Path_1266" data-name="Path 1266" d="M324.225,175.84l7.661,9.855-8.954,9.871-7.252-12.981Z" transform="translate(-34.538 -99.609)" fill="#ffb573"/>
      <path id="Path_1267" data-name="Path 1267" d="M319.807,202.949h12.064a1.375,1.375,0,0,0,1.359-1.244l2.5-28.925a1.359,1.359,0,0,0-1.359-1.49H322.328a1.375,1.375,0,0,0-1.359,1.26l-2.537,28.909a1.375,1.375,0,0,0,1.375,1.49Z" transform="translate(-32.788 -102.507)" fill="#407bff"/>
      <path id="Path_1268" data-name="Path 1268" d="M319.35,198.918h12.081l2.259-25.848H321.609Z" transform="translate(-32.201 -101.373)" fill="#fff" opacity="0.3"/>
      <path id="Path_1269" data-name="Path 1269" d="M321.826,188.8h0l2.144-1.1a13.1,13.1,0,0,0,3-2.1l.393-1.424a2.063,2.063,0,0,0-2.275-.933l-1.784.491-8.856.671-.213,3.732,2.586,3.994h.884A4.043,4.043,0,0,0,321.826,188.8Z" transform="translate(-35.462 -94.927)" fill="#ffb573"/>
      <path id="Path_1270" data-name="Path 1270" d="M270.166,182.009C276.3,180.9,319.6,218.432,319.6,218.432l-12.834,18.825s-47.341-32.968-45.835-40.924C262.391,187.968,261.228,183.646,270.166,182.009Z" transform="translate(-69.432 -95.695)" fill="#263238"/>
      <path id="Path_1271" data-name="Path 1271" d="M270.085,189.33l-.475,19.644c4.911,3.814,22.656,17.417,22.656,17.417Z" transform="translate(-63.883 -91.016)" opacity="0.2"/>
      <path id="Path_1272" data-name="Path 1272" d="M248.93,433.412l14.52,1.424,4.616-33.672L253.53,399.74Z" transform="translate(-77.056 43.008)" fill="#ffb573"/>
      <path id="Path_1273" data-name="Path 1273" d="M163.046,299.61l-3.716,14.143,31.413,13.538,6.515-14.356Z" transform="translate(-134.128 -20.772)" fill="#ffb573"/>
      <path id="Path_1274" data-name="Path 1274" d="M266.042,424.4a5.532,5.532,0,0,0,3.585-.786,1.931,1.931,0,0,0,.655-1.637,1.064,1.064,0,0,0-.557-.933c-1.752-1.048-7.677,1.768-8.349,2.079a.336.336,0,0,0,.082.638,25.379,25.379,0,0,0,4.583.638Zm2.635-2.93a1.147,1.147,0,0,1,.655.147.426.426,0,0,1,.229.377,1.31,1.31,0,0,1-.442,1.1c-.9.769-3.274.835-6.548.213a18.859,18.859,0,0,1,6.155-1.85Z" transform="translate(-69.254 56.427)" fill="#407bff"/>
      <path id="Path_1275" data-name="Path 1275" d="M261.535,425.1h.131c1.768-.737,5.32-3.781,5.091-5.451a1.293,1.293,0,0,0-1.277-1.015,2.406,2.406,0,0,0-1.948.491c-1.882,1.457-2.324,5.4-2.357,5.549a.376.376,0,0,0,.082.344.36.36,0,0,0,.278.082Zm3.618-5.844h.2c.638.1.671.344.671.426.147,1-2.275,3.421-4.092,4.387a7.825,7.825,0,0,1,2-4.453,1.735,1.735,0,0,1,1.261-.311Z" transform="translate(-69.264 55.018)" fill="#407bff"/>
      <path id="Path_1276" data-name="Path 1276" d="M264.12,417.6l-13.1.557a1.146,1.146,0,0,0-1.13,1.031l-3.143,18.285a2.357,2.357,0,0,0,2.243,2.488h.262c5.713-.295,8.463-.72,15.7-.966,4.436-.147,18.007,1.457,24.063.082s4.911-7.383,2.308-7.334c-8.414.164-18.121-5.32-22.918-11.737C267.574,419.467,265.036,417.551,264.12,417.6Z" transform="translate(-78.446 54.383)" fill="#263238"/>
      <path id="Path_1277" data-name="Path 1277" d="M175.815,319.435l6.679-11.344a1.13,1.13,0,0,0-.278-1.506L168.6,294.029a2.374,2.374,0,0,0-3.274.524l-.147.229c-2.848,4.911-3.978,7.5-7.694,13.7-2.292,3.814-11.033,14.405-13.1,20.184s3.536,8.185,4.911,5.926c4.436-7.17,14.307-12.343,22.328-12.965C172.394,321.334,175.357,320.237,175.815,319.435Z" transform="translate(-143.934 -24.603)" fill="#263238"/>
      <path id="Path_1278" data-name="Path 1278" d="M267.2,401.158l-2.374,17.368L250.29,417.1l2.357-17.352Z" transform="translate(-76.189 43.014)" opacity="0.2"/>
      <path id="Path_1279" data-name="Path 1279" d="M198.884,313.088l-6.712,15.142-20.233-8.938L177.1,304.87Z" transform="translate(-126.096 -17.421)" opacity="0.2"/>
      <path id="Path_1280" data-name="Path 1280" d="M301.075,202.913c8.3,14.111-1.85,26.011-10.329,68.18l-54.707.147c.884-22.721.786-41.088-8.905-85.793a7.5,7.5,0,0,1,7.35-9.167c4.518,0,10.2.147,15.977.737a198.96,198.96,0,0,1,27.092,4.109,112.547,112.547,0,0,1,14.242,4.453C294.609,186.527,298,194.188,301.075,202.913Z" transform="translate(-91.059 -99.329)" fill="#263238"/>
      <path id="Path_1281" data-name="Path 1281" d="M283.339,236.227s30.726,88.838,29.989,131.563c-.426,24.473-2.275,70.078-9.658,102.147-6.024,26.191-30.579,42.889-30.579,42.889l-19.644-1.162s-10.64-39.942-8.791-55.837c3.683-31.643,14.6-55.411,13.276-84.467-2.1-47.57-16.173-135.868-16.173-135.868Z" transform="translate(-81.623 -61.614)" fill="#407bff"/>
      <path id="Path_1282" data-name="Path 1282" d="M246.777,411.05l27.747,1.637,2.521-8.332-31-2.865Z" transform="translate(-78.897 44.122)" fill="#263238"/>
      <path id="Path_1283" data-name="Path 1283" d="M248.63,402.213a.143.143,0,0,1,.164-.147c17.434,1.637,29.465-23.458,26.6-57.818l-9.249-87.578Z" transform="translate(-77.247 -48.123)" opacity="0.2"/>
      <path id="Path_1284" data-name="Path 1284" d="M312.092,235.522s24.424,156.216-26.355,173.8c-26.8,10.149-49.338-.851-76.037-12.67-15.437-6.826-34.72-25.307-34.72-25.307l7.415-20.184a96.582,96.582,0,0,1,40.924-2.063c26.028,4.027,27.124,11.459,36.373,5.844,19.447-48.061-14.012-86.055,8.725-119.5Z" transform="translate(-124.159 -61.646)" fill="#407bff"/>
      <path id="Path_1285" data-name="Path 1285" d="M184.26,303.79l-9.92,26.175,7.3,5.582L193.427,304.4Z" transform="translate(-124.567 -18.109)" fill="#263238"/>
      <path id="Path_1286" data-name="Path 1286" d="M184.779,223.146c-2.472,3.65-15.011,1.179-15.011,1.179L167.1,208.79l15.4,6.171Z" transform="translate(-129.179 -78.621)" fill="#ffb573"/>
      <path id="Path_1287" data-name="Path 1287" d="M173.909,208.3l2.39,16.14-9.249,1.375a2.03,2.03,0,0,1-2.177-1.637L161.32,212.72a1.064,1.064,0,0,1,.753-1.261Z" transform="translate(-132.877 -78.933)" fill="#ffb573"/>
      <path id="Path_1288" data-name="Path 1288" d="M166.788,218.834l5.271.933,4.993-3.749-1.932-1.375a6.548,6.548,0,0,1-2.586-3.88,28.386,28.386,0,0,1-.671-4.993v-.557a2.275,2.275,0,0,0-1.932-1.964l-1.31.966c-.818,1.784-.229,3.863-.327,5.255l-.213,2.7-2.112.917Z" transform="translate(-129.898 -82.15)" fill="#ffb573"/>
      <path id="Path_1289" data-name="Path 1289" d="M262.856,180l-30.971,42.561L175,233.791v9.331s53.463,3.961,65.479-3.028,32.166-49.387,32.166-49.387Z" transform="translate(-124.147 -96.959)" fill="#ffb573"/>
      <path id="Path_1290" data-name="Path 1290" d="M245.051,130.464c-13-4.354-28.074,3.716-34.016,16.059s-3.863,27.485,2.832,39.435c2.013,3.618,4.42,7.023,6.073,10.8a17.09,17.09,0,0,1,1.13,12.064c-1.342,3.912-2.717,6.417-7.563,5.795,0,0,0-2.685,1.85-2.357h0s-3.929,2.177-5.467.753c1.784,2.75,6.548,1.752,8.07-1.162,2.275-4.338-1.915-10.215-6.826-10.166s-8.905,5.026-8.741,9.92a13.456,13.456,0,0,0,8.185,11.279,6.089,6.089,0,0,1-6.548-3.519c2.226,5.828,9.494,8.4,15.633,7.252s11.328-5.075,16.14-9.052c6.548-5.369,13.243-12.163,13.1-20.56-.147-6.27-4.174-11.655-7.563-16.943s-6.351-11.737-4.191-17.614c1.817-4.993,6.761-8,11.115-11.05,3.143-2.177,9.527-7.039,8.774-11.639C256.264,135.375,248.734,131.692,245.051,130.464Z" transform="translate(-106.702 -129.271)" fill="#263238"/>
      <path id="Path_1291" data-name="Path 1291" d="M213.9,246.2l-8.578-22.7,1.964.164a8.3,8.3,0,0,0,7.939-4.223c6.548-11.655,23.458-41.235,28.221-42.708,6.793-2.013,13.783,3.421,16.37,11.459,1.948,5.909-18.007,31.25-27.206,45.655C224.44,246.59,213.9,246.2,213.9,246.2Z" transform="translate(-104.834 -99.314)" fill="#263238"/>
      <path id="Path_1292" data-name="Path 1292" d="M159.477,316.343v.18a2,2,0,0,0,1.473,1.244,1.211,1.211,0,0,0,1.162-.245c1.375-1.26.491-6.548.409-7.072a.327.327,0,0,0-.262-.278.393.393,0,0,0-.344.131C160.8,311.874,159.035,314.673,159.477,316.343ZM162,311.432c.295,2.1.426,4.911-.344,5.6a.54.54,0,0,1-.524,0,1.309,1.309,0,0,1-.982-.818c-.295-.884.327-2.685,1.85-4.813Z" transform="translate(-134.078 -14.046)" fill="#407bff"/>
      <path id="Path_1293" data-name="Path 1293" d="M161.065,311.115c.426,1.768,2.1,4.78,3.569,5.14a1.211,1.211,0,0,0,1.342-.687,1.817,1.817,0,0,0,.1-1.539c-.671-2.03-4.534-3.7-4.7-3.781a.311.311,0,0,0-.475.327A3.587,3.587,0,0,0,161.065,311.115Zm4.453,3.274a1.113,1.113,0,0,1-.147.851c-.213.393-.426.393-.589.36-1-.2-2.521-2.668-3.012-4.387,1.26.638,3.274,1.833,3.7,3.078a.147.147,0,0,0,0,.1Z" transform="translate(-133.129 -14.024)" fill="#407bff"/>
      <path id="Path_1294" data-name="Path 1294" d="M232.99,232.78l-1.522,5.32c-.2.409.278.835.966.818h56.475c.54,0,.982-.278,1.015-.606l.524-5.32c0-.36-.426-.688-1.015-.671H233.939A1.048,1.048,0,0,0,232.99,232.78Z" transform="translate(-88.207 -63.634)" fill="#407bff"/>
      <path id="Path_1295" data-name="Path 1295" d="M232.99,232.78l-1.522,5.32c-.2.409.278.835.966.818h56.475c.54,0,.982-.278,1.015-.606l.524-5.32c0-.36-.426-.688-1.015-.671H233.939A1.048,1.048,0,0,0,232.99,232.78Z" transform="translate(-88.207 -63.634)" fill="#fff" opacity="0.5"/>
      <path id="Path_1296" data-name="Path 1296" d="M239.848,239.625h-1.637c-.311,0-.573-.164-.54-.36l.737-6.924c0-.2.311-.36.638-.36h1.637c.311,0,.557.164.54.376l-.737,6.908A.743.743,0,0,1,239.848,239.625Z" transform="translate(-84.229 -63.85)" fill="#407bff"/>
      <path id="Path_1297" data-name="Path 1297" d="M264.712,239.625h-1.637c-.295,0-.557-.164-.524-.36l.737-6.908c0-.213.295-.376.606-.376h1.637c.311,0,.573.164.54.36l-.737,6.908C265.3,239.461,265.039,239.625,264.712,239.625Z" transform="translate(-68.381 -63.85)" fill="#407bff"/>
      <path id="Path_1298" data-name="Path 1298" d="M253.308,239.6h-1.637c-.311,0-.573-.164-.54-.36l.737-6.908c0-.213.311-.376.622-.376h1.637c.311,0,.557.164.54.36l-.753,6.908C253.914,239.441,253.636,239.6,253.308,239.6Z" transform="translate(-75.655 -63.862)" fill="#407bff"/>
      <path id="Path_1299" data-name="Path 1299" d="M243.889,158.53c1.735,8.921,3.438,25.029-2.619,29.875,0,0,2.423,9.151,18.612,11.59,17.876,2.685,8.5-7.5,8.5-7.5-9.74-3.847-9.494-10.886-7.825-17.368Z" transform="translate(-81.935 -110.635)" fill="#ffb573"/>
      <path id="Path_1300" data-name="Path 1300" d="M244.087,177a173.631,173.631,0,0,1,25.684,3.569l12.245,3.65c2.177,4.387-1.392,13.407-11.639,15.126,0,0-25.815,3.552-33.427-23.032Z" transform="translate(-84.687 -99.309)" fill="#ffb573"/>
      <path id="Path_1301" data-name="Path 1301" d="M247.433,162.68l9.822,9.822a24.9,24.9,0,0,0-.8,4.649c-3.732-1.1-9.724-5.206-10.133-9.134A13.505,13.505,0,0,1,247.433,162.68Z" transform="translate(-78.718 -107.991)" opacity="0.2"/>
      <path id="Path_1302" data-name="Path 1302" d="M236.575,161.78c4.387,13.849,5.926,19.807,14.913,25.258,13.39,8.185,29.465-.2,29.3-15.06-.131-13.39-7.252-33.787-22.459-36.013a19.807,19.807,0,0,0-21.755,25.766Z" transform="translate(-85.555 -125.147)" fill="#ffb573"/>
      <path id="Path_1303" data-name="Path 1303" d="M256.38,150.33a31.1,31.1,0,0,0,5.582,6.548,5.108,5.108,0,0,1-3.978,1.637Z" transform="translate(-72.31 -115.858)" fill="#ed893e"/>
      <path id="Path_1304" data-name="Path 1304" d="M258.279,160.9a9.528,9.528,0,0,0,1.637-.327.327.327,0,0,0,.246-.393h0a.344.344,0,0,0-.409-.246,9.282,9.282,0,0,1-8.185-1.637.36.36,0,0,0-.507,0,.344.344,0,0,0,0,.491,9.822,9.822,0,0,0,7.219,2.112Z" transform="translate(-75.765 -110.847)" fill="#263238"/>
      <path id="Path_1305" data-name="Path 1305" d="M235.67,135.03a13.423,13.423,0,0,0-6.122,10.722,5.01,5.01,0,0,0,.376,2.406,2.325,2.325,0,0,0,1.866,1.391c1.244,0,2.161-1.113,2.848-2.161l3.176-4.911a24.406,24.406,0,0,0,3.274-5.222C242.153,134.032,237.618,133.786,235.67,135.03Z" transform="translate(-89.414 -126.046)" fill="#407bff"/>
      <path id="Path_1306" data-name="Path 1306" d="M236.8,140.342c-8.692,10.051-12.588,37.863,12.883,45.622,4.256-3.372-2.619-9.511-5.533-17.27-1.915-5.075,7.792-14.553,11.573-18.449s7.268-9.511,12.6-8.61a7.2,7.2,0,0,0,4.191.115c4.24-1.915,2.177-4.453,0-6.221a21.789,21.789,0,0,0-11.459-4.223,28.369,28.369,0,0,0-24.26,9.036Z" transform="translate(-88.987 -128.1)" fill="#263238"/>
      <path id="Path_1307" data-name="Path 1307" d="M266.43,135.693c10.231,8.529-3.274,8.741-10.427,14.143-6.859,5.189-2.046,13.685-13.652,17.63-9.478,2.766-11.672,1.1-14.291-.737a14.929,14.929,0,0,0,12.326-13.407C241.188,147.1,254.743,125.806,266.43,135.693Z" transform="translate(-90.349 -126.823)" fill="#263238"/>
      <path id="Path_1308" data-name="Path 1308" d="M235.646,161.748a10.722,10.722,0,0,0,6.81,4.42c3.667.638,5.075-2.717,3.814-5.991-1.195-2.947-4.518-6.826-8.07-5.991a4.764,4.764,0,0,0-3.421,5.795,4.912,4.912,0,0,0,.868,1.768Z" transform="translate(-86.165 -113.476)" fill="#ffb573"/>
      <path id="Path_1309" data-name="Path 1309" d="M250.68,137.186c1.981,5.042,7.694,4.371,11.917,9.642,2.6,3.274,7.71-6.826.753-10.8S247.57,129.3,250.68,137.186Z" transform="translate(-76.35 -127.448)" fill="#263238"/>
      <path id="Path_1310" data-name="Path 1310" d="M247,150.365a.688.688,0,0,0,.7-.409c1.342-2.979,5.369-3.732,5.4-3.732a.72.72,0,0,0,.557-.818.688.688,0,0,0-.8-.54c-.213,0-4.8.966-6.433,4.567a.7.7,0,0,0,.344.917H247Z" transform="translate(-78.69 -119.347)" fill="#263238"/>
      <path id="Path_1311" data-name="Path 1311" d="M262.2,145.507a.655.655,0,0,0,.606-.311.671.671,0,0,0-.18-.949h0a6.875,6.875,0,0,0-6.286-.8.671.671,0,0,0-.36.917.688.688,0,0,0,.9.36h0a5.418,5.418,0,0,1,4.911.688A.982.982,0,0,0,262.2,145.507Z" transform="translate(-72.61 -120.513)" fill="#263238"/>
      <path id="Path_1312" data-name="Path 1312" d="M308.472,199.28l-9.593,5.451-9.969,21.444s9.625,6.122,17.221,1.162S308.472,199.28,308.472,199.28Z" transform="translate(-51.59 -84.678)" fill="#407bff"/>
      <path id="Path_1313" data-name="Path 1313" d="M308.472,199.28l-9.593,5.451-9.969,21.444s9.625,6.122,17.221,1.162S308.472,199.28,308.472,199.28Z" transform="translate(-51.59 -84.678)" fill="#fff" opacity="0.5"/>
      <path id="Path_1314" data-name="Path 1314" d="M198.624,203.33l11.344,3.274,10.755,22.246s-8.643,8-18.007.36C195.71,223.416,198.624,203.33,198.624,203.33Z" transform="translate(-109.482 -82.099)" fill="#407bff"/>
      <g id="Group_122" data-name="Group 122" transform="translate(88.541 121.231)" opacity="0.5">
        <path id="Path_1315" data-name="Path 1315" d="M198.624,203.33l11.344,3.274,10.755,22.246s-8.643,8-18.007.36C195.71,223.416,198.624,203.33,198.624,203.33Z" transform="translate(-198.023 -203.33)" fill="#fff"/>
      </g>
      <path id="Path_1316" data-name="Path 1316" d="M259.773,147.936c.786-.147,1.637.737,1.817,1.948s-.262,2.324-1.048,2.455-1.637-.737-1.817-1.948S258.987,148.051,259.773,147.936Z" transform="translate(-70.842 -117.393)" fill="#263238"/>
      <path id="Path_1317" data-name="Path 1317" d="M261.906,147.2l-2.767,1.359C260.81,149.737,261.906,147.2,261.906,147.2Z" transform="translate(-70.552 -117.852)" fill="#263238"/>
      <path id="Path_1318" data-name="Path 1318" d="M251.424,149.656c.786-.147,1.637.737,1.817,1.948s-.262,2.324-1.048,2.455-1.637-.737-1.817-1.948S250.606,149.8,251.424,149.656Z" transform="translate(-76.161 -116.297)" fill="#263238"/>
      <path id="Path_1319" data-name="Path 1319" d="M253.536,148.92l-2.766,1.359C252.44,151.457,253.536,148.92,253.536,148.92Z" transform="translate(-75.884 -116.756)" fill="#263238"/>
      <path id="Path_1320" data-name="Path 1320" d="M213.03,224.533a11.966,11.966,0,0,1-4.5-.851c-5.075-2.079-7.432-7.35-6.548-14.487a.819.819,0,0,1,.917-.7.8.8,0,0,1,.7.917c-.851,6.335,1.146,10.984,5.484,12.752a12.6,12.6,0,0,0,14.16-4.354c4.109-5.467,2.766-13.227-3.634-21.281-16.763-21.035-15.649-32.215-13.276-41.055,3.438-12.834,13.5-27.534,41.988-24.7a.823.823,0,1,1-.164,1.637c-27.321-2.717-36.979,11.3-40.253,23.507-2.357,8.84-3.274,19.169,12.981,39.615,9.822,12.326,5.844,20.4,3.667,23.278a14.733,14.733,0,0,1-11.524,5.729Z" transform="translate(-107.077 -128.544)" fill="#263238"/>
    </g>
  </g>
</svg>
