<svg xmlns="http://www.w3.org/2000/svg" width="364.475" height="52.439" viewBox="0 0 364.475 52.439">
  <g id="Group_11" data-name="Group 11" transform="translate(-215.631 250.201)">
    <g id="Group_10" data-name="Group 10" transform="translate(312.904 -240.754)">
      <path id="Path_2" data-name="Path 2" d="M45.831,166.37a10.058,10.058,0,0,1-1.542,5.4,6.155,6.155,0,0,1-1.671,1.735,10.213,10.213,0,0,1-1.928,1.157,11.091,11.091,0,0,1-2.056.707,10.862,10.862,0,0,1-1.928.193H14.857V169.9H36.706a3.441,3.441,0,0,0,2.57-.964,3.676,3.676,0,0,0,.9-2.57,3.269,3.269,0,0,0-.257-1.414,3.5,3.5,0,0,0-.707-1.157,3.361,3.361,0,0,0-1.092-.771,3.458,3.458,0,0,0-1.414-.257H23.661a10.223,10.223,0,0,1-2.956-.514,7.833,7.833,0,0,1-2.956-1.607,7.952,7.952,0,0,1-2.249-2.892,9.693,9.693,0,0,1-.9-4.306,9.5,9.5,0,0,1,.9-4.306,8.279,8.279,0,0,1,2.249-2.828,8.839,8.839,0,0,1,2.956-1.607,10.223,10.223,0,0,1,2.956-.514H43v5.655H23.661a3.2,3.2,0,0,0-2.506.964,3.79,3.79,0,0,0-.9,2.57,3.676,3.676,0,0,0,.9,2.57,3.2,3.2,0,0,0,2.506.964H36.77a9.92,9.92,0,0,1,1.928.257,8.676,8.676,0,0,1,2.056.707,7.538,7.538,0,0,1,1.928,1.221,8.188,8.188,0,0,1,1.607,1.735,11.683,11.683,0,0,1,1.157,2.378,12.434,12.434,0,0,1,.386,3.149Zm81.806-6.555a9.981,9.981,0,0,1-.386,2.57,6.818,6.818,0,0,1-1.35,2.506,7.4,7.4,0,0,1-2.442,1.928,7.918,7.918,0,0,1-3.663.771H109.58v-5.4H119.8a2.418,2.418,0,0,0,1.8-.707,2.326,2.326,0,0,0,.643-1.735,2.177,2.177,0,0,0-.707-1.735,2.326,2.326,0,0,0-1.735-.643H109.58a2.418,2.418,0,0,0-1.8.707,2.326,2.326,0,0,0-.643,1.735v7.9a2.176,2.176,0,0,0,.707,1.735,2.326,2.326,0,0,0,1.735.643h16.194v5.4H109.515a9.981,9.981,0,0,1-2.57-.386,6.818,6.818,0,0,1-2.506-1.35,7.4,7.4,0,0,1-1.928-2.442,7.917,7.917,0,0,1-.771-3.663v-7.969a9.981,9.981,0,0,1,.386-2.57,6.818,6.818,0,0,1,1.35-2.506,7.4,7.4,0,0,1,2.442-1.928,7.917,7.917,0,0,1,3.663-.771H119.8a9.98,9.98,0,0,1,2.57.386,6.818,6.818,0,0,1,2.506,1.349,7.4,7.4,0,0,1,1.928,2.442,7.6,7.6,0,0,1,.835,3.727Zm-30.332-2.185H88.951a2.356,2.356,0,0,0-1.735.578,2.3,2.3,0,0,0-.578,1.671v15.68H80.983V159.88a8.411,8.411,0,0,1,.386-2.635,8.7,8.7,0,0,1,.964-2.056,6.208,6.208,0,0,1,1.414-1.478,8.99,8.99,0,0,1,1.671-1.028,8.409,8.409,0,0,1,1.8-.578,7.849,7.849,0,0,1,1.671-.193h10.86a10.7,10.7,0,0,0-1.157,1.8,13.013,13.013,0,0,0-.9,2.185h0q-.193.964-.386,1.735Zm-21.592,15.1a3.639,3.639,0,0,1-.193,1.157,2.517,2.517,0,0,1-1.478,1.478,3,3,0,0,1-1.092.193H60.1a9.666,9.666,0,0,1-2.249-.257,10.871,10.871,0,0,1-2.313-.771,16.032,16.032,0,0,1-2.249-1.35,7.9,7.9,0,0,1-1.864-1.992,10.507,10.507,0,0,1-1.285-2.7,11.583,11.583,0,0,1-.514-3.47V151.911h5.655v13.109a4.925,4.925,0,0,0,1.414,3.534,3.907,3.907,0,0,0,1.542.964,6.058,6.058,0,0,0,1.928.321h9.961V151.911h5.655v20.821Z" transform="translate(-14.6 -142.015)" fill="#64b32c" fill-rule="evenodd"/>
      <path id="Path_3" data-name="Path 3" d="M228.3,174.345H207.8a7.849,7.849,0,0,1-1.671-.193,9.75,9.75,0,0,1-1.8-.578,6.518,6.518,0,0,1-1.671-1.028,6.206,6.206,0,0,1-1.414-1.478,6.748,6.748,0,0,1-.964-2.056,8.411,8.411,0,0,1-.386-2.635V151.018a7.852,7.852,0,0,1,.193-1.671,9.754,9.754,0,0,1,.578-1.8,7.337,7.337,0,0,1,2.57-3.085,6.748,6.748,0,0,1,2.056-.964,8.411,8.411,0,0,1,2.635-.386h20.5v5.655h-20.5a2.2,2.2,0,0,0-1.671.578,2.356,2.356,0,0,0-.578,1.735v15.294a2.023,2.023,0,0,0,2.249,2.249h20.5v5.719ZM280.035,158.6a9.981,9.981,0,0,1-.386,2.57,6.818,6.818,0,0,1-1.349,2.506,7.4,7.4,0,0,1-2.442,1.928,7.917,7.917,0,0,1-3.663.771H261.977v-5.4h10.218a2.418,2.418,0,0,0,1.8-.707,2.326,2.326,0,0,0,.643-1.735,2.176,2.176,0,0,0-.707-1.735,2.326,2.326,0,0,0-1.735-.643H261.977a2.418,2.418,0,0,0-1.8.707,2.326,2.326,0,0,0-.643,1.735v7.9a2.176,2.176,0,0,0,.707,1.735,2.326,2.326,0,0,0,1.735.643h16.194v5.4H261.913a9.981,9.981,0,0,1-2.57-.386,6.817,6.817,0,0,1-2.506-1.35,7.4,7.4,0,0,1-1.928-2.442,7.918,7.918,0,0,1-.771-3.663v-7.969a9.981,9.981,0,0,1,.386-2.57,6.817,6.817,0,0,1,1.35-2.506,7.4,7.4,0,0,1,2.442-1.928,7.918,7.918,0,0,1,3.663-.771H272.2a9.98,9.98,0,0,1,2.57.386,6.818,6.818,0,0,1,2.506,1.35,7.4,7.4,0,0,1,1.928,2.442,7.6,7.6,0,0,1,.835,3.727ZM249.7,156.416h-8.354a2.357,2.357,0,0,0-1.735.578,2.3,2.3,0,0,0-.578,1.671v15.68h-5.655v-15.68a8.411,8.411,0,0,1,.386-2.635,8.7,8.7,0,0,1,.964-2.056,6.207,6.207,0,0,1,1.414-1.478,8.989,8.989,0,0,1,1.671-1.028,8.412,8.412,0,0,1,1.8-.578,7.853,7.853,0,0,1,1.671-.193h10.86a10.7,10.7,0,0,0-1.157,1.8,13.013,13.013,0,0,0-.9,2.185h0q-.193.964-.386,1.735Zm98.321,0h-9.9v17.929h-5.719V156.416h-8.354v17.929H318.4V156.416h-8.354v9.961a8.411,8.411,0,0,1-.386,2.635,8.7,8.7,0,0,1-.964,2.056,6.206,6.206,0,0,1-1.414,1.478,8.988,8.988,0,0,1-1.671,1.028,8.41,8.41,0,0,1-1.8.578,7.976,7.976,0,0,1-1.735.193H291.859a8.411,8.411,0,0,1-2.635-.386,8.7,8.7,0,0,1-2.056-.964,6.206,6.206,0,0,1-1.478-1.414,8.99,8.99,0,0,1-1.028-1.671,8.411,8.411,0,0,1-.578-1.8,7.849,7.849,0,0,1-.193-1.671v-7.711a7.736,7.736,0,0,1,.771-3.663,6.924,6.924,0,0,1,1.992-2.442,7.077,7.077,0,0,1,2.57-1.349,9.6,9.6,0,0,1,2.57-.386h12.531v-9.961h5.655v9.961h22.427v-9.961h5.719v9.961h9.9v5.527Zm-43.7,0H291.859a2.357,2.357,0,0,0-1.735.578,2.3,2.3,0,0,0-.578,1.671v7.647a2.357,2.357,0,0,0,.578,1.735,2.3,2.3,0,0,0,1.671.578h10.218a2.357,2.357,0,0,0,1.735-.578,2.3,2.3,0,0,0,.578-1.671v-9.961Zm19.729-10.475V140.8H318.4v5.141Z" transform="translate(-80.822 -140.8)" fill="#194396" fill-rule="evenodd"/>
    </g>
    <g id="Group_9" data-name="Group 9" transform="translate(215.631 -250.201)">
      <path id="Path_1" data-name="Path 1" d="M188.736,54.635c7.326,0,19-1.542,20.436,9.474a10.5,10.5,0,0,1-3.25,9.309c-4.572,4.352-14.267,3.14-22.419,3.14-16.58,0-14.652-6.28-20.711-9.695-2.919-1.653-5.839-.992-7.491,1.047,12.229,11.843,11.788,16.25,30.792,16.25,7.051,0,34.262.441,37.9-.441,8.924-2.2,11.512-10.466,3.691-18.233L212.311,49.513c-3.525-3.36-6.775-2.919-12.724-2.919-3.14,0-13.11-.551-15.093.606a4.155,4.155,0,0,0-1.6,5.288C183.888,54.58,185.981,54.635,188.736,54.635Z" transform="translate(-152.301 -31.831)" fill="#194396" fill-rule="evenodd"/>
      <path id="Path_4" data-name="Path 4" d="M193.451,49.535c-7.326,0-19,1.542-20.436-9.474a10.5,10.5,0,0,1,3.25-9.309c4.572-4.352,14.267-3.14,22.419-3.14,16.58,0,14.652,6.28,20.711,9.695,2.919,1.653,5.839.992,7.491-1.047C214.658,24.417,215.1,20.01,196.095,20.01c-7.051,0-34.262-.441-37.9.441-8.924,2.2-11.512,10.466-3.691,18.233l15.368,15.974c3.525,3.36,6.775,2.919,12.724,2.919,3.14,0,13.11.551,15.093-.606a4.155,4.155,0,0,0,1.6-5.288C198.3,49.535,196.2,49.535,193.451,49.535Z" transform="translate(-149.855 -19.9)" fill="#64b32c" fill-rule="evenodd"/>
    </g>
  </g>
</svg>
